<?xml version="1.0" encoding="UTF-8"?>
<svg width="299px" height="119px" viewBox="0 0 299 119" version="1.1" xmlns="http://www.w3.org/2000/svg" xmlns:xlink="http://www.w3.org/1999/xlink">
    <!-- Generator: Sketch 50.2 (55047) - http://www.bohemiancoding.com/sketch -->
    <title>atkins_logo_black</title>
    <desc>Created with Sketch.</desc>
    <defs></defs>
    <g id="Page-1" stroke="none" stroke-width="1" fill="none" fill-rule="evenodd">
        <g id="atkins_logo_black" fill="#202020" fill-rule="nonzero">
            <polygon id="Shape" points="0.8 97.2 2.8 97.2 6.9 105.8 6.9 105.8 10.7 97.2 12.8 97.2 12.8 114.2 11.2 114.2 11.2 99.5 11.2 99.5 7.4 108.1 6.1 108.1 2.3 99.7 2.3 99.7 2.3 114.2 0.8 114.2"></polygon>
            <path d="M22.4,107.1 L22.4,105.8 C22.4,104.3 21.9,103 19.9,103 C18.1,103 17.4,104.5 17.4,105.8 L17.4,107.1 L22.4,107.1 Z M15.8,109.9 L15.8,106.3 C15.8,103.2 17.6,101.7 20.1,101.7 C22.6,101.7 23.9,103.2 23.9,106 L23.9,108.3 L17.3,108.3 L17.3,110.1 C17.3,112.1 18.3,113.2 20.1,113.2 C21.4,113.2 22.4,112.7 22.9,112.4 L23.4,113.4 C22.4,114.2 21.1,114.7 19.8,114.7 C17.6,114.5 15.8,112.9 15.8,109.9 Z" id="Shape"></path>
            <path d="M26.7,102 L28.2,102 L28.2,104 C29,102.5 30.2,101.7 31.8,101.7 C33.3,101.7 34.3,102.7 34.6,104 C35.4,102.5 36.6,101.7 38.2,101.7 C40,101.7 41,103 41,104.8 L41,114.2 L39.5,114.2 L39.5,105.3 C39.5,103.8 38.7,103 37.5,103 C36.2,103 34.7,104.3 34.7,106.1 L34.7,114 L33.2,114 L33.2,105.1 C33.2,103.6 32.4,103.1 31.2,103.1 C30,103.1 28.4,104.6 28.4,106.4 L28.4,114.3 L26.9,114.3 L26.7,102 Z" id="Shape"></path>
            <path d="M51.2,110.7 L51.2,105.4 C51.2,104.1 50.4,103.1 48.9,103.1 C47.6,103.1 46.1,104.6 46.1,106.7 L46.1,109.8 C46.1,111.8 47.4,113.4 48.9,113.4 C50.4,113.4 51.2,112.2 51.2,110.7 M46.1,112.2 L46.1,114.2 L44.6,114.2 L44.6,97.2 L46.1,97.2 L46.1,104.1 C46.9,102.6 48.1,101.8 49.4,101.8 C51.7,101.8 52.7,103.6 52.7,105.4 L52.7,110.5 C52.7,113 51.2,114.3 49.1,114.3 C48.1,114.5 46.6,113.5 46.1,112.2" id="Shape"></path>
            <path d="M61.8,107.1 L61.8,105.8 C61.8,104.3 61.3,103 59.3,103 C57.5,103 56.8,104.5 56.8,105.8 L56.8,107.1 L61.8,107.1 Z M55.2,109.9 L55.2,106.3 C55.2,103.2 57,101.7 59.5,101.7 C62,101.7 63.3,103.2 63.3,106 L63.3,108.3 L56.7,108.3 L56.7,110.1 C56.7,112.1 57.7,113.2 59.5,113.2 C60.8,113.2 61.8,112.7 62.3,112.4 L62.8,113.4 C61.8,114.2 60.5,114.7 59.2,114.7 C57,114.5 55.2,112.9 55.2,109.9 Z" id="Shape"></path>
            <path d="M66.2,102 L67.7,102 L67.7,104 C68.5,102.2 69.7,101.7 71,101.7 C71.3,101.7 71.5,101.7 71.8,101.7 L71.8,103.2 C71.3,103.2 71,103.2 70.8,103.2 C69.3,103.2 67.7,104.2 67.7,106.3 L67.7,113.9 L66.2,113.9 L66.2,102 Z" id="Shape"></path>
            <path d="M84.5,109.9 L84.5,105.8 C84.5,104.3 83.7,102.7 82,102.7 C80.2,102.7 79.5,104 79.5,105.8 L79.5,109.9 C79.5,111.7 80.3,113 82,113 C83.7,112.9 84.5,111.7 84.5,109.9 M77.6,110.2 L77.6,106.4 C77.6,103.6 79.4,102.1 81.7,102.1 C84.2,102.1 85.8,103.6 85.8,106.4 L85.8,110.2 C85.8,113.3 84,114.5 81.7,114.5 C79.4,114.5 77.6,112.9 77.6,110.2" id="Shape"></path>
            <path d="M89.8,103.3 L88,103.3 L88,102 L89.8,102 L89.8,100 C89.8,98 90.8,96.9 92.6,96.9 C93.1,96.9 93.6,96.9 93.9,97.2 L93.9,98.5 C93.6,98.5 93.1,98.5 92.9,98.5 C92.1,98.5 91.4,99 91.4,100.3 L91.4,102.3 L93.7,102.3 L93.7,103.6 L91.4,103.6 L91.4,114.3 L89.9,114.3 L89.9,103.3 L89.8,103.3 Z" id="Shape"></path>
            <path d="M101,111.9 L101,103.3 L99.2,103.3 L99.2,102 L101,102 L101,98.4 L102.5,98.4 L102.5,102 L105.6,102 L105.6,103.3 L102.5,103.3 L102.5,111.4 C102.5,112.4 103,112.9 104,112.9 C104.5,112.9 105,112.9 105.3,112.6 L105.3,113.9 C104.5,114.2 104,114.2 103.3,114.2 C102.5,114.2 101,114 101,111.9" id="Shape"></path>
            <path d="M108.1,97.2 L109.6,97.2 L109.6,104.1 C110.4,102.6 111.6,101.8 113.2,101.8 C115,101.8 116,103.1 116,104.9 L116,114.3 L114.5,114.3 L114.5,105.4 C114.5,103.9 113.7,103.1 112.5,103.1 C111.3,103.1 109.7,104.6 109.7,106.4 L109.7,114 L108.2,114 L108.2,97.2 L108.1,97.2 Z" id="Shape"></path>
            <path d="M125.7,107.1 L125.7,105.8 C125.7,104.3 125.2,103 123.2,103 C121.4,103 120.7,104.5 120.7,105.8 L120.7,107.1 L125.7,107.1 Z M119.1,109.9 L119.1,106.3 C119.1,103.2 120.9,101.7 123.4,101.7 C125.9,101.7 127.2,103.2 127.2,106 L127.2,108.3 L120.6,108.3 L120.6,110.1 C120.6,112.1 121.6,113.2 123.4,113.2 C124.7,113.2 125.7,112.7 126.2,112.4 L126.7,113.4 C125.7,114.2 124.4,114.7 123.1,114.7 C120.8,114.5 119.1,112.9 119.1,109.9 Z" id="Shape"></path>
            <path d="M133.1,112.2 L134.1,110.9 C135.4,112.2 136.4,112.7 138.4,112.7 C140.4,112.7 141.5,111.4 141.5,109.9 C141.5,108.1 140.2,107.1 139,106.6 L137,105.6 C135,104.6 133.9,103.3 133.9,101.3 C133.9,98.8 135.7,97 138.5,97 C140.3,97 141.8,97.5 143.1,99 L142.1,100 C141.1,99 140.1,98.5 138.5,98.5 C137,98.5 135.7,99.5 135.7,101.3 C135.7,102.6 136.5,103.6 138,104.1 L139.8,105.1 C141.8,106.1 143.1,107.6 143.1,109.7 C143.1,112.5 141.1,114.5 138,114.5 C135.9,114.5 134.3,113.7 133.1,112.2" id="Shape"></path>
            <polygon id="Shape" points="146 97.2 147.8 97.2 154.7 110.7 154.9 110.7 154.9 97.2 156.5 97.2 156.5 114.2 154.9 114.2 147.6 100 147.6 100 147.6 114.2 146 114.2"></polygon>
            <path d="M159.5,109.4 L159.5,102 C159.5,98.9 161.5,96.9 164.8,96.9 C167.6,96.9 169.6,98.7 169.6,101.2 L169.6,102.5 L168.1,102.5 L168.1,101.5 C168.1,99.7 167.1,98.2 164.8,98.2 C162.5,98.2 161.2,99.7 161.2,101.8 L161.2,108.9 C161.2,111.4 162.7,112.7 164.8,112.7 C166.8,112.7 168.1,111.4 168.1,109.6 L168.1,108.6 L169.6,108.6 L169.6,109.9 C169.6,112.4 167.6,114.2 164.8,114.2 C161.8,114.5 159.5,112.7 159.5,109.4" id="Shape"></path>
            <rect id="Rectangle-path" x="171.7" y="106.3" width="4.8" height="1.3"></rect>
            <polygon id="Shape" points="179.1 97.2 180.9 97.2 180.9 112.7 188 112.7 188 114.2 179.1 114.2"></polygon>
            <path d="M196.4,110.2 L196.4,108.4 L194.4,108.4 C193.1,108.4 191.6,108.9 191.6,110.9 C191.6,112.4 192.6,113.2 193.6,113.2 C195.1,112.9 196.4,111.9 196.4,110.2 M189.8,110.9 C189.8,108.1 192.1,107.1 194.1,107.1 L196.4,107.1 L196.4,105.1 C196.4,103.6 195.4,103.1 194.1,103.1 C192.8,103.1 191.8,103.6 191.8,105.1 L191.8,105.9 L190.3,105.9 L190.3,105.1 C190.3,103.1 192.1,102 194.4,102 C196.4,102 198.2,103 198.2,105.3 L198.2,111.4 C198.2,112.4 198.2,113.9 198.2,114.5 L196.7,114.5 L196.7,112.5 C195.9,114.3 194.4,114.8 193.4,114.8 C191.3,114.5 189.8,113.2 189.8,110.9" id="Shape"></path>
            <polygon id="Shape" points="200 102 201.5 102 204 111.9 204.3 111.9 206.8 102 208.3 102 204.8 114.2 203.3 114.2"></polygon>
            <path d="M216.2,110.2 L216.2,108.4 L214.2,108.4 C212.9,108.4 211.4,108.9 211.4,110.9 C211.4,112.4 212.4,113.2 213.4,113.2 C215,112.9 216.2,111.9 216.2,110.2 M209.6,110.9 C209.6,108.1 211.9,107.1 213.9,107.1 L216.2,107.1 L216.2,105.1 C216.2,103.6 215.2,103.1 213.9,103.1 C212.6,103.1 211.6,103.6 211.6,105.1 L211.6,105.9 L210.1,105.9 L210.1,105.1 C210.1,103.1 211.9,102 214.2,102 C216.2,102 218,103 218,105.3 L218,111.4 C218,112.4 218,113.9 218,114.5 L216.5,114.5 L216.5,112.5 C215.7,114.3 214.2,114.8 213.2,114.8 C211.1,114.5 209.6,113.2 209.6,110.9" id="Shape"></path>
            <path d="M221.1,111.7 L221.1,97.2 L222.6,97.2 L222.6,111.4 C222.6,112.2 222.9,112.7 223.9,112.7 C224.2,112.7 224.7,112.7 224.9,112.7 L224.9,114 C224.4,114.3 223.9,114.3 223.4,114.3 C221.8,114.2 221.1,113.5 221.1,111.7" id="Shape"></path>
            <path d="M227.2,114.2 L228.7,114.2 L228.7,102 L227.2,102 L227.2,114.2 Z M227.2,100 L228.7,100 L228.7,97.5 L227.2,97.5 L227.2,100 Z" id="Shape"></path>
            <path d="M232.3,102 L233.8,102 L233.8,104 C234.6,102.5 235.8,101.7 237.4,101.7 C239.2,101.7 240.2,103 240.2,104.8 L240.2,114.2 L238.7,114.2 L238.7,105.3 C238.7,103.8 237.9,103 236.7,103 C235.4,103 233.9,104.5 233.9,106.3 L233.9,114.2 L232.4,114.2 L232.4,102 L232.3,102 Z" id="Shape"></path>
            <path d="M247.3,109.4 L247.3,102 C247.3,98.9 249.6,96.9 252.6,96.9 C255.7,96.9 257.7,98.7 257.7,101.2 L257.7,102.5 L256.2,102.5 L256.2,101.5 C256.2,99.7 254.9,98.4 252.6,98.4 C250.3,98.4 249,99.9 249,102.2 L249,109.3 C249,111.6 250.3,112.9 252.6,112.9 C255.1,112.9 255.9,111.4 255.9,109.6 L255.9,106.5 L252.6,106.5 L252.6,105.2 L257.7,105.2 L257.7,109.8 C257.7,112.3 255.7,114.4 252.6,114.4 C249.5,114.5 247.3,112.7 247.3,109.4" id="Shape"></path>
            <path d="M260.7,102 L262.2,102 L262.2,104 C263,102.2 264.2,101.7 265.5,101.7 C265.8,101.7 266,101.7 266.3,101.7 L266.3,103.2 C265.8,103.2 265.5,103.2 265.3,103.2 C263.8,103.2 262.2,104.2 262.2,106.3 L262.2,113.9 L260.7,113.9 L260.7,102 Z" id="Shape"></path>
            <path d="M275,109.9 L275,105.8 C275,104.3 274.2,102.7 272.5,102.7 C270.8,102.7 270,104 270,105.8 L270,109.9 C270,111.7 270.8,113 272.5,113 C274.2,113 275,111.7 275,109.9 M268.1,110.2 L268.1,106.4 C268.1,103.6 269.9,102.1 272.2,102.1 C274.7,102.1 276.3,103.6 276.3,106.4 L276.3,110.2 C276.3,113.3 274.5,114.5 272.2,114.5 C269.9,114.5 268.1,112.9 268.1,110.2" id="Shape"></path>
            <path d="M279.3,111.2 L279.3,101.8 L280.8,101.8 L280.8,110.7 C280.8,112.2 281.6,113 282.8,113 C284.3,113 285.6,111.5 285.6,109.7 L285.6,102 L287.1,102 L287.1,114.2 L285.6,114.2 L285.6,112.2 C285.1,113.7 283.6,114.5 282,114.5 C280.6,114.5 279.3,113.2 279.3,111.2" id="Shape"></path>
            <path d="M297.4,110.7 L297.4,105.6 C297.4,104.3 296.6,103.3 295.1,103.3 C293.6,103.3 292.3,104.8 292.3,106.9 L292.3,109.7 C292.3,111.7 293.6,113.3 295.1,113.3 C296.3,113.2 297.4,112.2 297.4,110.7 Z M290.8,102 L292.3,102 L292.3,104 C293.1,102.5 294.3,101.7 295.6,101.7 C297.6,101.7 298.9,103.2 298.9,105.3 L298.9,110.4 C298.9,112.9 297.6,114.5 295.3,114.5 C294,114.5 292.8,113.7 292.2,112.5 L292.2,118.6 L290.7,118.6 L290.8,102 Z" id="Shape"></path>
            <polygon id="Shape" points="23.7 1.3 0.8 64.9 13.5 64.9 31.1 14.5 49.1 64.9 62.9 64.9 39.2 1.3"></polygon>
            <polygon id="Shape" points="75.1 11.5 58 11.5 54.5 1.3 105.1 1.3 105.1 11.5 87.3 11.5 87.3 64.9 75.1 64.9"></polygon>
            <polygon id="Shape" points="124.9 35.1 124.9 64.9 112.5 64.9 112.5 1.3 124.9 1.3 124.9 28.5 147.3 1.3 162.1 1.3 136.9 31 163.1 64.9 147.6 64.9"></polygon>
            <rect id="Rectangle-path" x="169.9" y="1.3" width="12.2" height="63.3"></rect>
            <polygon id="Shape" points="235.6 47.8 235.6 1.3 247 1.3 247 64.9 232 64.9 207.6 18.3 207.6 64.9 196.4 64.9 196.4 1.3 211.4 1.3"></polygon>
            <path d="M294.6,13.8 C290.8,11.8 286.5,10.2 281.1,10.2 C276.8,10.2 270.7,12.2 270.7,18.3 C270.7,24.4 277.8,25.9 284.4,28.7 C292.5,32 298.6,36.3 298.6,46.8 C298.6,60 288.2,66.9 274.7,66.9 C267.8,66.9 261.7,65.4 257.4,62.8 L258.9,51.4 C263,54.2 268.8,56.2 274.7,56.2 C281.1,56.2 285.6,53.7 285.6,47.8 C285.6,41.9 279,39.9 272.4,37.1 C265.3,34 257.9,30.5 257.9,19.6 C257.9,6.4 269.3,-1.13686838e-13 280.3,-1.13686838e-13 C286.7,-1.13686838e-13 291.5,1.3 295.6,3.3 L294.6,13.8 Z" id="Shape"></path>
        </g>
    </g>
</svg>